LAB2/lab2/simulation/qsim/lab2final.msim.vcd
$comment
	File created using the following command:
		vcd file lab2final.msim.vcd -direction
$end
$date
	Thu Sep 23 09:33:00 2021
$end
$version
	ModelSim Version 10.5b
$end
$timescale
	1ps
$end

$scope module lab2final_vlg_vec_tst $end
$var reg 1 ! CLOCK $end
$var reg 1 " DIN0 $end
$var reg 1 # DIN1 $end
$var reg 1 $ FETCH $end
$var reg 1 % LDSBR $end
$var reg 1 & SAR0 $end
$var reg 1 ' SAR1 $end
$var reg 1 ( STORE $end
$var wire 1 ) Q0 $end
$var wire 1 * Q00 $end
$var wire 1 + Q1 $end
$var wire 1 , Q01 $end
$var wire 1 - Q02 $end
$var wire 1 . Q03 $end
$var wire 1 / Q10 $end
$var wire 1 0 Q11 $end
$var wire 1 1 Q12 $end
$var wire 1 2 Q13 $end
$var wire 1 3 SBR0 $end
$var wire 1 4 SBR1 $end

$scope module i1 $end
$var wire 1 5 gnd $end
$var wire 1 6 vcc $end
$var wire 1 7 unknown $end
$var tri1 1 8 devclrn $end
$var tri1 1 9 devpor $end
$var tri1 1 : devoe $end
$var wire 1 ; ~QUARTUS_CREATED_GND~I_combout $end
$var wire 1 < CLOCK~input_o $end
$var wire 1 = CLOCK~inputCLKENA0_outclk $end
$var wire 1 > LDSBR~input_o $end
$var wire 1 ? DIN1~input_o $end
$var wire 1 @ SAR1~input_o $end
$var wire 1 A SAR0~input_o $end
$var wire 1 B STORE~input_o $end
$var wire 1 C inst12|3~q $end
$var wire 1 D inst12|3~0_combout $end
$var wire 1 E inst12|3~DUPLICATE_q $end
$var wire 1 F inst12|15~0_combout $end
$var wire 1 G inst12|15~q $end
$var wire 1 H inst1~0_combout $end
$var wire 1 I inst7|23~0_combout $end
$var wire 1 J inst2|41~q $end
$var wire 1 K inst2|40~q $end
$var wire 1 L inst2|39~feeder_combout $end
$var wire 1 M inst2|39~q $end
$var wire 1 N inst2|38~feeder_combout $end
$var wire 1 O inst2|38~DUPLICATE_q $end
$var wire 1 P FETCH~input_o $end
$var wire 1 Q inst3~0_combout $end
$var wire 1 R inst8|10~0_combout $end
$var wire 1 S inst4|10~q $end
$var wire 1 T DIN0~input_o $end
$var wire 1 U inst7|22~0_combout $end
$var wire 1 V inst|41~q $end
$var wire 1 W inst|40~feeder_combout $end
$var wire 1 X inst|40~DUPLICATE_q $end
$var wire 1 Y inst|39~q $end
$var wire 1 Z inst|38~feeder_combout $end
$var wire 1 [ inst|38~q $end
$var wire 1 \ inst8|9~0_combout $end
$var wire 1 ] inst4|9~q $end
$var wire 1 ^ inst|40~q $end
$var wire 1 _ inst|39~DUPLICATE_q $end
$var wire 1 ` inst2|40~DUPLICATE_q $end
$var wire 1 a inst2|38~q $end
$upscope $end
$upscope $end
$enddefinitions $end
#0
$dumpvars
1!
0"
1#
0$
1%
0&
0'
0(
0)
0*
0+
0,
0-
0.
0/
00
01
02
03
04
05
16
x7
18
19
1:
0;
1<
1=
1>
1?
0@
0A
0B
0C
1D
0E
0F
0G
0H
0I
0J
0K
0L
0M
0N
0O
0P
0Q
1R
0S
0T
0U
0V
0W
0X
0Y
0Z
0[
0\
0]
0^
0_
0`
0a
$end
#5000
0!
0<
0=
#10000
1!
1<
1=
1E
1S
1C
1)
14
1F
0D
#15000
0!
0<
0=
#20000
1!
1<
1=
0E
1G
0C
0)
1+
1D
#25000
0!
0<
0=
#30000
0%
1!
0>
1<
1=
1E
1C
1)
0F
0D
#35000
0!
0<
0=
#40000
0#
1%
1!
0?
1>
1<
1=
0R
0E
0G
0C
0)
0+
1D
#45000
0!
0<
0=
#50000
1!
1<
1=
1E
0S
1C
1)
04
1F
0D
#55000
0!
0<
0=
#60000
1!
1<
1=
0E
1G
0C
0)
1+
1D
#65000
0!
0<
0=
#70000
0%
1!
0>
1<
1=
1E
1C
1)
0F
0D
#75000
0!
0<
0=
#80000
1"
1%
1!
1T
1>
1<
1=
1\
0E
0G
0C
0)
0+
1D
#85000
0!
0<
0=
#90000
1!
1<
1=
1E
1]
1C
1)
13
1F
0D
#95000
0!
0<
0=
#100000
1!
1<
1=
0E
1G
0C
0)
1+
1D
#105000
0!
0<
0=
#110000
0%
1!
0>
1<
1=
1E
1C
1)
0F
0D
#115000
0!
0<
0=
#120000
1#
1%
1!
1?
1>
1<
1=
1R
0E
0G
0C
0)
0+
1D
#125000
0!
0<
0=
#130000
1!
1<
1=
1E
1S
1C
1)
14
1F
0D
#135000
0!
0<
0=
#140000
1!
1<
1=
0E
1G
0C
0)
1+
1D
#145000
0!
0<
0=
#150000
0%
1!
0>
1<
1=
1E
1C
1)
0F
0D
#155000
0!
0<
0=
#160000
0"
0#
1!
0T
0?
1<
1=
0E
0G
0C
0)
0+
1D
#165000
0!
0<
0=
#170000
1!
1<
1=
1E
1C
1)
1F
0D
#175000
0!
0<
0=
#180000
1!
1<
1=
0E
1G
0C
0)
1+
1D
#185000
0!
0<
0=
#190000
1&
1'
1!
1A
1@
1<
1=
1E
1C
1)
0F
0D
#195000
0!
0<
0=
#200000
1(
1!
1B
1<
1=
1H
1U
1I
0E
0G
0C
0)
0+
0H
1D
0U
0I
#205000
0!
0<
0=
#210000
1!
1<
1=
1E
1C
1)
1F
0D
#215000
0!
0<
0=
#220000
1!
1<
1=
0E
1G
0C
0)
1+
1D
#225000
0!
0<
0=
#230000
1!
1<
1=
1E
1C
1)
1H
0F
0D
1U
1I
#235000
0!
0<
0=
#240000
0(
1!
0B
1<
1=
0H
0U
0I
0E
1V
1J
0G
0C
0)
0+
1/
1*
1D
1W
#245000
0!
0<
0=
#250000
1%
1"
1!
1>
1T
1<
1=
0R
1X
1K
1E
1`
1^
0V
0J
1C
1)
0/
0*
1,
10
1F
1L
0D
0W
#255000
0!
0<
0=
#260000
1!
1<
1=
1Y
0X
0K
0E
0`
1_
0^
0S
1M
1G
0C
0)
1+
11
04
0,
1-
00
0L
1Z
1D
1N
#265000
0!
0<
0=
#270000
1!
1<
1=
0Y
1O
1E
1a
0_
1[
0M
1C
1)
01
1.
0-
12
0F
1I
0Z
0D
0N
1U
#275000
0!
0<
0=
#280000
0'
0%
1!
0@
0>
1<
1=
0O
0E
0a
0[
1V
1J
0G
0C
0)
0+
1/
1*
0.
02
0I
1D
1W
0U
#285000
0!
0<
0=
#290000
1(
0"
1!
1B
0T
1<
1=
1X
1K
1E
1`
1^
0V
0J
1C
1)
0/
0*
1,
10
1F
1L
0D
0W
#295000
0!
0<
0=
#300000
1!
1<
1=
1Y
0X
0K
0E
0`
1_
0^
1M
1G
0C
0)
1+
11
0,
1-
00
1H
0L
1Z
1D
1N
1U
#305000
0!
0<
0=
#310000
1!
1<
1=
0Y
1O
1E
1a
0_
1[
1V
0M
1C
1)
01
1*
1.
0-
12
0H
0F
0Z
0D
0N
1W
1I
#315000
0!
0<
0=
#320000
1!
1<
1=
1X
0O
0E
0a
1^
0[
1J
0G
0C
0)
0+
1/
0.
1,
02
0I
1D
0U
#325000
0!
0<
0=
#330000
0(
1!
0B
1<
1=
1Y
1K
1E
1`
1_
0V
0J
1C
1)
0/
0*
1-
10
1F
1L
1Z
0D
0W
#335000
0!
0<
0=
#340000
1%
1!
1>
1<
1=
0\
0X
0K
0E
0`
0^
1[
1M
1G
0C
0)
1+
11
1.
0,
00
0L
1D
1N
1U
#345000
0!
0<
0=
#350000
1!
1<
1=
0Y
1O
1E
1a
0_
0]
1V
0M
1C
1)
01
1*
03
0-
12
0F
1I
0Z
0D
0N
1W
#355000
0!
0<
0=
#360000
1!
1<
1=
1X
0O
0E
0a
1^
0[
1J
0G
0C
0)
0+
1/
0.
1,
02
0I
1D
0U
#365000
0!
0<
0=
#370000
0&
0%
1!
0A
0>
1<
1=
1Y
1K
1E
1`
1_
0V
0J
1C
1)
0/
0*
1-
10
1F
1L
1Z
0D
0W
#375000
0!
0<
0=
#380000
1(
1!
1B
1<
1=
0X
0K
0E
0`
0^
1[
1M
1G
0C
0)
1+
11
1.
0,
00
0L
1D
1N
1U
#385000
0!
0<
0=
#390000
1!
1<
1=
0Y
1O
1E
1a
0_
1V
0M
1C
1)
01
1*
0-
12
0F
1I
0Z
0D
0N
1W
#395000
0!
0<
0=
#400000
1!
1<
1=
1X
0O
0E
0a
1^
0[
1J
0G
0C
0)
0+
1/
0.
1,
02
1H
0I
1D
0U
#405000
0!
0<
0=
#410000
1!
1<
1=
1Y
1K
1E
1`
1_
0V
0J
1C
1)
0/
0*
1-
10
0H
1F
1L
1Z
0D
0W
#415000
0!
0<
0=
#420000
0(
1!
0B
1<
1=
0X
0K
0E
0`
0^
1[
1M
1G
0C
0)
1+
11
1.
0,
00
0L
1D
1N
1U
#425000
0!
0<
0=
#430000
1#
1%
1!
1?
1>
1<
1=
1R
0Y
1O
1E
1a
0_
1V
0M
1C
1)
01
1*
0-
12
0F
1I
0Z
0D
0N
1W
#435000
0!
0<
0=
#440000
1!
1<
1=
1X
0O
0E
0a
1^
0[
1S
1J
0G
0C
0)
0+
1/
14
0.
1,
02
0I
1D
0U
#445000
0!
0<
0=
#450000
1!
1<
1=
1Y
1K
1E
1`
1_
0V
0J
1C
1)
0/
0*
1-
10
1F
1L
1Z
0D
0W
#455000
0!
0<
0=
#460000
1'
0%
1!
1@
0>
1<
1=
0X
0K
0E
0`
0^
1[
1M
1G
0C
0)
1+
11
1.
0,
00
0L
1D
1N
1U
#465000
0!
0<
0=
#470000
1(
0#
1!
1B
0?
1<
1=
0Y
1O
1E
1a
0_
1V
0M
1C
1)
01
1*
0-
12
0F
1I
0Z
0D
0N
1W
#475000
0!
0<
0=
#480000
1!
1<
1=
1X
0O
0E
0a
1^
0[
1J
0G
0C
0)
0+
1/
0.
1,
02
0I
1D
0U
#485000
0!
0<
0=
#490000
1!
1<
1=
1Y
1K
1E
1`
1_
0V
0J
1C
1)
0/
0*
1-
10
1H
1F
1L
1Z
0D
0W
1I
#495000
0!
0<
0=
#500000
1!
1<
1=
0X
0K
0E
0`
0^
1[
1M
1J
1G
0C
0)
1+
1/
11
1.
0,
00
0H
0L
1D
1N
1U
0I
#505000
0!
0<
0=
#510000
0(
1!
0B
1<
1=
0Y
1O
1K
1E
1a
1`
0_
1V
0M
0J
1C
1)
0/
01
1*
0-
10
12
0F
1L
1I
0Z
0D
0N
1W
#515000
0!
0<
0=
#520000
1!
1<
1=
1X
0O
0K
0E
0a
0`
1^
0[
1M
1J
0G
0C
0)
0+
1/
11
0.
1,
00
02
0L
0I
1D
1N
0U
#525000
0!
0<
0=
#530000
1!
1<
1=
1Y
1O
1K
1E
1a
1`
1_
0V
0M
0J
1C
1)
0/
01
0*
1-
10
12
1F
1L
1I
1Z
0D
0N
0W
#535000
0!
0<
0=
#540000
1!
1<
1=
0X
0O
0K
0E
0a
0`
0^
1[
1M
1J
1G
0C
0)
1+
1/
11
1.
0,
00
02
0L
0I
1D
1N
1U
#545000
0!
0<
0=
#550000
0'
1!
0@
1<
1=
0Y
1O
1K
1E
1a
1`
0_
1V
0M
0J
1C
1)
0/
01
1*
0-
10
12
0F
1L
1I
0Z
0D
0N
1W
#555000
0!
0<
0=
#560000
1!
1<
1=
1X
0O
0K
0E
0a
0`
1^
0[
1M
1J
0G
0C
0)
0+
1/
11
0.
1,
00
02
0L
0I
1D
1N
0U
#565000
0!
0<
0=
#570000
1!
1<
1=
1Y
1O
1K
1E
1a
1`
1_
0V
0M
0J
1C
1)
0/
01
0*
1-
10
12
1F
1L
1I
1Z
0D
0N
0W
#575000
0!
0<
0=
#580000
1!
1<
1=
0X
0O
0K
0E
0a
0`
0^
1[
1M
1J
1G
0C
0)
1+
1/
11
1.
0,
00
02
0L
0I
1D
1N
1U
#585000
0!
0<
0=
#590000
1!
1<
1=
0Y
1O
1K
1E
1a
1`
0_
1V
0M
0J
1C
1)
0/
01
1*
0-
10
12
0F
1L
1I
0Z
0D
0N
1W
#595000
0!
0<
0=
#600000
1!
1<
1=
1X
0O
0K
0E
0a
0`
1^
0[
1M
1J
0G
0C
0)
0+
1/
11
0.
1,
00
02
0L
0I
1D
1N
0U
#605000
0!
0<
0=
#610000
1!
1<
1=
1Y
1O
1K
1E
1a
1`
1_
0V
0M
0J
1C
1)
0/
01
0*
1-
10
12
1F
1L
1I
1Z
0D
0N
0W
#615000
0!
0<
0=
#620000
1!
1<
1=
0X
0O
0K
0E
0a
0`
0^
1[
1M
1J
1G
0C
0)
1+
1/
11
1.
0,
00
02
0L
0I
1D
1N
1U
#625000
0!
0<
0=
#630000
1&
1'
1!
1A
1@
1<
1=
0Y
1O
1K
1E
1a
1`
0_
1V
0M
0J
1C
1)
0/
01
1*
0-
10
12
0F
1L
1I
0Z
0D
0N
1W
#635000
0!
0<
0=
#640000
1$
1!
1P
1<
1=
1Q
1\
1X
0O
0K
0E
0a
0`
1^
0[
1M
1J
0G
0C
0)
0+
1/
11
0.
1,
00
02
0Q
0L
0R
0I
1D
1N
0\
0U
1R
#645000
0!
0<
0=
#650000
1!
1<
1=
1Y
1O
1K
1E
1a
1`
1_
0V
0M
0J
1C
1)
0/
01
0*
1-
10
12
1F
1L
1I
1Z
0D
0N
0W
#655000
0!
0<
0=
#660000
1!
1<
1=
0X
0O
0K
0E
0a
0`
0^
1[
1M
1J
1G
0C
0)
1+
1/
11
1.
0,
00
02
0L
0I
1D
1N
1U
#665000
0!
0<
0=
#670000
1!
1<
1=
0Y
1O
1K
1E
1a
1`
0_
1V
0M
0J
1C
1)
0/
01
1*
0-
10
12
1Q
0F
1L
1I
0Z
0D
0N
1W
1\
#675000
0!
0<
0=
#680000
0'
0$
1!
0@
0P
1<
1=
0Q
0\
1X
0O
0K
0E
0a
0`
1^
1]
0[
1M
1J
0G
0C
0)
0+
1/
11
0.
13
1,
00
02
0L
0I
1D
1N
1\
0U
#685000
0!
0<
0=
#690000
1$
1!
1P
1<
1=
1Y
1O
1K
1E
1a
1`
1_
0V
0M
0J
1C
1)
0/
01
0*
1-
10
12
1F
1L
1I
1Z
0D
0N
0W
#695000
0!
0<
0=
#700000
1!
1<
1=
0X
0O
0K
0E
0a
0`
0^
1[
1M
1J
1G
0C
0)
1+
1/
11
1.
0,
00
02
1Q
0L
0I
1D
1N
1U
0R
#705000
0!
0<
0=
#710000
1!
1<
1=
0Y
1O
1K
1E
1a
1`
0_
1V
0S
0M
0J
1C
1)
0/
01
04
1*
0-
10
12
0Q
0F
1L
1R
1I
0Z
0D
0N
1W
0R
#715000
0!
0<
0=
#720000
1!
1<
1=
1X
0O
0K
0E
0a
0`
1^
0[
1M
1J
0G
0C
0)
0+
1/
11
0.
1,
00
02
0L
0I
1D
1N
0U
#725000
0!
0<
0=
#730000
0&
0$
1!
0A
0P
1<
1=
1Y
1O
1K
1E
1a
1`
1_
0V
0M
0J
1C
1)
0/
01
0*
1-
10
12
1F
1L
1I
1Z
0D
0N
0W
#735000
0!
0<
0=
#740000
1$
1!
1P
1<
1=
0X
0O
0K
0E
0a
0`
0^
1[
1M
1J
1G
0C
0)
1+
1/
11
1.
0,
00
02
0L
0I
1D
1N
1U
#745000
0!
0<
0=
#750000
1!
1<
1=
0Y
1O
1K
1E
1a
1`
0_
1V
0M
0J
1C
1)
0/
01
1*
0-
10
12
0F
1L
1I
0Z
0D
0N
1W
#755000
0!
0<
0=
#760000
1!
1<
1=
1X
0O
0K
0E
0a
0`
1^
0[
1M
1J
0G
0C
0)
0+
1/
11
0.
1,
00
02
1Q
0L
0I
1D
1N
0U
0\
#765000
0!
0<
0=
#770000
1!
1<
1=
1Y
1O
1K
1E
1a
1`
1_
0]
0V
0M
0J
1C
1)
0/
01
0*
03
1-
10
12
0Q
1F
1L
1R
1I
1Z
0D
0N
0W
0R
#775000
0!
0<
0=
#780000
1'
0$
1!
1@
0P
1<
1=
0X
0O
0K
0E
0a
0`
0^
1[
1M
1J
1G
0C
0)
1+
1/
11
1.
0,
00
02
0L
0I
1D
1N
1U
#785000
0!
0<
0=
#790000
1$
1!
1P
1<
1=
0Y
1O
1K
1E
1a
1`
0_
1V
0M
0J
1C
1)
0/
01
1*
0-
10
12
0F
1L
1I
0Z
0D
0N
1W
#795000
0!
0<
0=
#800000
1!
1<
1=
1X
0O
0K
0E
0a
0`
1^
0[
1M
1J
0G
0C
0)
0+
1/
11
0.
1,
00
02
0L
0I
1D
1N
0U
#805000
0!
0<
0=
#810000
1!
1<
1=
1Y
1O
1K
1E
1a
1`
1_
0V
0M
0J
1C
1)
0/
01
0*
1-
10
12
1Q
1F
1L
1I
1Z
0D
0N
0W
1R
#815000
0!
0<
0=
#820000
1!
1<
1=
0X
0O
0K
0E
0a
0`
0^
1[
1S
1M
1J
1G
0C
0)
1+
1/
11
14
1.
0,
00
02
0Q
0L
0R
0I
1D
1N
1\
1U
0\
1R
#825000
0!
0<
0=
#830000
0'
0$
1!
0@
0P
1<
1=
0Y
1O
1K
1E
1a
1`
0_
1V
0M
0J
1C
1)
0/
01
1*
0-
10
12
0F
1L
1I
0Z
0D
0N
1W
#835000
0!
0<
0=
#840000
1!
1<
1=
1X
0O
0K
0E
0a
0`
1^
0[
1M
1J
0G
0C
0)
0+
1/
11
0.
1,
00
02
0L
0I
1D
1N
0U
#845000
0!
0<
0=
#850000
1!
1<
1=
1Y
1O
1K
1E
1a
1`
1_
0V
0M
0J
1C
1)
0/
01
0*
1-
10
12
1F
1L
1I
1Z
0D
0N
0W
#855000
0!
0<
0=
#860000
1!
1<
1=
0X
0O
0K
0E
0a
0`
0^
1[
1M
1J
1G
0C
0)
1+
1/
11
1.
0,
00
02
0L
0I
1D
1N
1U
#865000
0!
0<
0=
#870000
1!
1<
1=
0Y
1O
1K
1E
1a
1`
0_
1V
0M
0J
1C
1)
0/
01
1*
0-
10
12
0F
1L
1I
0Z
0D
0N
1W
#875000
0!
0<
0=
#880000
1!
1<
1=
1X
0O
0K
0E
0a
0`
1^
0[
1M
1J
0G
0C
0)
0+
1/
11
0.
1,
00
02
0L
0I
1D
1N
0U
#885000
0!
0<
0=
#890000
1!
1<
1=
1Y
1O
1K
1E
1a
1`
1_
0V
0M
0J
1C
1)
0/
01
0*
1-
10
12
1F
1L
1I
1Z
0D
0N
0W
#895000
0!
0<
0=
#900000
1!
1<
1=
0X
0O
0K
0E
0a
0`
0^
1[
1M
1J
1G
0C
0)
1+
1/
11
1.
0,
00
02
0L
0I
1D
1N
1U
#905000
0!
0<
0=
#910000
1!
1<
1=
0Y
1O
1K
1E
1a
1`
0_
1V
0M
0J
1C
1)
0/
01
1*
0-
10
12
0F
1L
1I
0Z
0D
0N
1W
#915000
0!
0<
0=
#920000
1!
1<
1=
1X
0O
0K
0E
0a
0`
1^
0[
1M
1J
0G
0C
0)
0+
1/
11
0.
1,
00
02
0L
0I
1D
1N
0U
#925000
0!
0<
0=
#930000
1!
1<
1=
1Y
1O
1K
1E
1a
1`
1_
0V
0M
0J
1C
1)
0/
01
0*
1-
10
12
1F
1L
1I
1Z
0D
0N
0W
#935000
0!
0<
0=
#940000
1!
1<
1=
0X
0O
0K
0E
0a
0`
0^
1[
1M
1J
1G
0C
0)
1+
1/
11
1.
0,
00
02
0L
0I
1D
1N
1U
#945000
0!
0<
0=
#950000
1!
1<
1=
0Y
1O
1K
1E
1a
1`
0_
1V
0M
0J
1C
1)
0/
01
1*
0-
10
12
0F
1L
1I
0Z
0D
0N
1W
#955000
0!
0<
0=
#960000
1!
1<
1=
1X
0O
0K
0E
0a
0`
1^
0[
1M
1J
0G
0C
0)
0+
1/
11
0.
1,
00
02
0L
0I
1D
1N
0U
#965000
0!
0<
0=
#970000
1!
1<
1=
1Y
1O
1K
1E
1a
1`
1_
0V
0M
0J
1C
1)
0/
01
0*
1-
10
12
1F
1L
1I
1Z
0D
0N
0W
#975000
0!
0<
0=
#980000
1!
1<
1=
0X
0O
0K
0E
0a
0`
0^
1[
1M
1J
1G
0C
0)
1+
1/
11
1.
0,
00
02
0L
0I
1D
1N
1U
#985000
0!
0<
0=
#990000
1!
1<
1=
0Y
1O
1K
1E
1a
1`
0_
1V
0M
0J
1C
1)
0/
01
1*
0-
10
12
0F
1L
1I
0Z
0D
0N
1W
#995000
0!
0<
0=
