LAB3/file/simulation/qsim/lab3.msim.vcd
$comment
	File created using the following command:
		vcd file lab3.msim.vcd -direction
$end
$date
	Thu Oct 14 17:43:28 2021
$end
$version
	ModelSim Version 10.5b
$end
$timescale
	1ps
$end

$scope module lab3_vlg_vec_tst $end
$var reg 1 ! CLK $end
$var reg 1 " D0 $end
$var reg 1 # D1 $end
$var reg 1 $ D2 $end
$var reg 1 % D3 $end
$var reg 1 & EXECUTE $end
$var reg 1 ' F0 $end
$var reg 1 ( F1 $end
$var reg 1 ) F2 $end
$var reg 1 * LOAD_A $end
$var reg 1 + LOAD_B $end
$var reg 1 , R0 $end
$var reg 1 - R1 $end
$var wire 1 . QA $end
$var wire 1 / QB $end
$var wire 1 0 RA0 $end
$var wire 1 1 RA1 $end
$var wire 1 2 RA2 $end
$var wire 1 3 RA3 $end
$var wire 1 4 RB0 $end
$var wire 1 5 RB1 $end
$var wire 1 6 RB2 $end
$var wire 1 7 RB3 $end
$var wire 1 8 shift $end

$scope module i1 $end
$var wire 1 9 gnd $end
$var wire 1 : vcc $end
$var wire 1 ; unknown $end
$var tri1 1 < devclrn $end
$var tri1 1 = devpor $end
$var tri1 1 > devoe $end
$var wire 1 ? ~QUARTUS_CREATED_GND~I_combout $end
$var wire 1 @ CLK~input_o $end
$var wire 1 A CLK~inputCLKENA0_outclk $end
$var wire 1 B D0~input_o $end
$var wire 1 C LOAD_A~input_o $end
$var wire 1 D EXECUTE~input_o $end
$var wire 1 E inst5|15~q $end
$var wire 1 F inst5|15~0_combout $end
$var wire 1 G inst5|15~DUPLICATE_q $end
$var wire 1 H inst10~combout $end
$var wire 1 I inst3|9~q $end
$var wire 1 J inst5|3~0_combout $end
$var wire 1 K inst5|3~q $end
$var wire 1 L inst7~combout $end
$var wire 1 M D1~input_o $end
$var wire 1 N D2~input_o $end
$var wire 1 O D3~input_o $end
$var wire 1 P LOAD_B~input_o $end
$var wire 1 Q R0~input_o $end
$var wire 1 R R1~input_o $end
$var wire 1 S F1~input_o $end
$var wire 1 T F0~input_o $end
$var wire 1 U F2~input_o $end
$var wire 1 V inst22~combout $end
$var wire 1 W inst1|37~0_combout $end
$var wire 1 X inst1|34~1_combout $end
$var wire 1 Y inst1|41~q $end
$var wire 1 Z inst1|36~0_combout $end
$var wire 1 [ inst1|40~q $end
$var wire 1 \ inst1|35~0_combout $end
$var wire 1 ] inst1|39~q $end
$var wire 1 ^ inst1|34~0_combout $end
$var wire 1 _ inst1|38~q $end
$var wire 1 ` inst|37~0_combout $end
$var wire 1 a inst|34~1_combout $end
$var wire 1 b inst|41~q $end
$var wire 1 c inst|36~0_combout $end
$var wire 1 d inst|40~q $end
$var wire 1 e inst|35~0_combout $end
$var wire 1 f inst|39~q $end
$var wire 1 g inst|34~0_combout $end
$var wire 1 h inst|38~q $end
$upscope $end
$upscope $end
$enddefinitions $end
#0
$dumpvars
0!
0"
0#
0$
0%
0&
0'
0(
0)
0*
0+
0,
0-
0.
0/
00
01
02
03
04
05
06
07
08
09
1:
x;
1<
1=
1>
0?
0@
0A
0B
0C
0D
0E
0F
0G
0H
0I
0J
0K
0L
0M
0N
0O
0P
0Q
0R
0S
0T
0U
0V
0W
0X
0Y
0Z
0[
0\
0]
0^
0_
0`
0a
0b
0c
0d
0e
0f
0g
0h
$end
#5000
1!
1@
1A
#10000
1#
1"
0!
1M
1B
0@
0A
#15000
1!
1@
1A
#20000
0!
0@
0A
#25000
1!
1@
1A
#30000
1*
0!
1C
0@
0A
1a
1g
1e
#35000
1!
1@
1A
1h
1f
11
10
#40000
0!
0@
0A
#45000
1!
1@
1A
#50000
0#
0"
0*
0!
0M
0B
0C
0@
0A
0a
0e
1`
#55000
1!
1@
1A
#60000
0!
0@
0A
#65000
1!
1@
1A
#70000
1%
1$
0!
1O
1N
0@
0A
#75000
1!
1@
1A
#80000
0!
0@
0A
#85000
1!
1@
1A
#90000
1*
0!
1C
0@
0A
1a
0g
1c
#95000
1!
1@
1A
0h
0f
1d
1b
13
12
01
00
#100000
0!
0@
0A
#105000
1!
1@
1A
#110000
0%
0$
0*
0!
0O
0N
0C
0@
0A
0a
1e
0`
#115000
1!
1@
1A
#120000
0!
0@
0A
#125000
1!
1@
1A
#130000
0!
0@
0A
#135000
1!
1@
1A
#140000
0!
0@
0A
#145000
1!
1@
1A
#150000
1*
0!
1C
0@
0A
1a
0e
0c
#155000
1!
1@
1A
0d
0b
03
02
#160000
0!
0@
0A
#165000
1!
1@
1A
#170000
0*
0!
0C
0@
0A
0a
#175000
1!
1@
1A
#180000
0!
0@
0A
#185000
1!
1@
1A
#190000
1#
1"
0!
1M
1B
0@
0A
#195000
1!
1@
1A
#200000
0!
0@
0A
#205000
1!
1@
1A
#210000
1+
0!
1P
0@
0A
1X
1^
1\
#215000
1!
1@
1A
1_
1]
15
14
#220000
0!
0@
0A
#225000
1!
1@
1A
#230000
0#
0"
0+
0!
0M
0B
0P
0@
0A
0X
0\
1W
#235000
1!
1@
1A
#240000
0!
0@
0A
#245000
1!
1@
1A
#250000
1%
1$
0!
1O
1N
0@
0A
#255000
1!
1@
1A
#260000
0!
0@
0A
#265000
1!
1@
1A
#270000
1+
0!
1P
0@
0A
1X
0^
1Z
#275000
1!
1@
1A
0_
0]
1[
1Y
17
16
05
04
#280000
0!
0@
0A
#285000
1!
1@
1A
#290000
0%
0$
0+
0!
0O
0N
0P
0@
0A
0X
1\
0W
#295000
1!
1@
1A
#300000
0!
0@
0A
#305000
1!
1@
1A
#310000
0!
0@
0A
#315000
1!
1@
1A
#320000
0!
0@
0A
#325000
1!
1@
1A
#330000
1+
0!
1P
0@
0A
1X
0\
0Z
#335000
1!
1@
1A
0[
0Y
07
06
#340000
0!
0@
0A
#345000
1!
1@
1A
#350000
0+
0!
0P
0@
0A
0X
#355000
1!
1@
1A
#360000
0!
0@
0A
#365000
1!
1@
1A
#370000
0!
0@
0A
#375000
1!
1@
1A
#380000
0!
0@
0A
#385000
1!
1@
1A
#390000
0!
0@
0A
#395000
1!
1@
1A
#400000
1#
1%
1$
0!
1M
1O
1N
0@
0A
#405000
1!
1@
1A
#410000
0!
0@
0A
#415000
1!
1@
1A
#420000
1*
0!
1C
0@
0A
1a
1e
1c
1`
#425000
1!
1@
1A
1f
1d
1b
13
12
11
#430000
0!
0@
0A
#435000
1!
1@
1A
#440000
1"
0%
0*
0!
1B
0O
0C
0@
0A
0a
0`
#445000
1!
1@
1A
#450000
0!
0@
0A
#455000
1!
1@
1A
#460000
1+
0!
1P
0@
0A
1X
1^
1\
1Z
#465000
1!
1@
1A
1_
1]
1[
16
15
14
#470000
0!
0@
0A
#475000
1!
1@
1A
#480000
0#
0$
0"
0+
0!
0M
0N
0B
0P
0@
0A
0X
0Z
1W
#485000
1!
1@
1A
#490000
0!
0@
0A
#495000
1!
1@
1A
#500000
1&
0!
1D
0@
0A
1a
1X
1L
1J
1H
18
1g
#505000
1!
1@
1A
1I
1h
0b
0[
1Y
1K
1.
17
06
03
10
1V
0J
1F
1Z
0\
0c
1`
#510000
0!
0@
0A
#515000
1!
1@
1A
1E
0d
1b
0]
1[
0K
1G
1/
0.
16
05
13
02
1J
1\
0^
1c
0e
#520000
0!
0@
0A
#525000
1!
1@
1A
0f
1d
0_
1]
1K
1.
15
04
12
01
0V
0J
0F
1^
0W
1e
0g
#530000
0!
0@
0A
#535000
1!
1@
1A
0E
0h
1f
1_
0Y
0K
0G
0/
0.
07
14
11
00
0a
0X
0L
0Z
0`
1W
1g
08
0g
#540000
0!
0@
0A
#545000
1!
1@
1A
#550000
0!
0@
0A
#555000
1!
1@
1A
#560000
0!
0@
0A
#565000
1!
1@
1A
#570000
0!
0@
0A
#575000
1!
1@
1A
#580000
0!
0@
0A
#585000
1!
1@
1A
#590000
0!
0@
0A
#595000
1!
1@
1A
#600000
1,
1%
1#
1$
0&
0!
1Q
1O
1M
1N
0D
0@
0A
0H
0W
#605000
1!
1@
1A
0I
#610000
0!
0@
0A
#615000
1!
1@
1A
#620000
1*
0!
1C
0@
0A
1a
1`
#625000
1!
1@
1A
#630000
0!
0@
0A
#635000
1!
1@
1A
#640000
1"
0%
0*
0!
1B
0O
0C
0@
0A
0a
0`
#645000
1!
1@
1A
#650000
0!
0@
0A
#655000
1!
1@
1A
#660000
1+
0!
1P
0@
0A
1X
1Z
#665000
1!
1@
1A
#670000
0!
0@
0A
#675000
1!
1@
1A
#680000
0#
0$
0"
0+
0!
0M
0N
0B
0P
0@
0A
0X
0Z
#685000
1!
1@
1A
#690000
0!
0@
0A
#695000
1!
1@
1A
#700000
1&
0!
1D
0@
0A
1a
1X
1L
1J
1H
18
1g
#705000
1!
1@
1A
1I
1h
0b
0[
1K
1.
06
03
10
1V
0J
1F
0\
0c
1`
1W
#710000
0!
0@
0A
#715000
1!
1@
1A
1E
0d
1b
0]
1Y
0K
1G
1/
0.
17
05
13
02
1J
1Z
0^
1c
0e
#720000
0!
0@
0A
#725000
1!
1@
1A
0f
1d
0_
1[
1K
1.
16
04
12
01
0V
0J
0F
1\
1e
0g
0W
#730000
0!
0@
0A
#735000
1!
1@
1A
0E
0h
1f
1]
0Y
0K
0G
0/
0.
07
15
11
00
0a
0X
0L
0Z
1^
1g
0`
08
0g
0^
#740000
0!
0@
0A
#745000
1!
1@
1A
#750000
0!
0@
0A
#755000
1!
1@
1A
#760000
0!
0@
0A
#765000
1!
1@
1A
#770000
0!
0@
0A
#775000
1!
1@
1A
#780000
0!
0@
0A
#785000
1!
1@
1A
#790000
0!
0@
0A
#795000
1!
1@
1A
#800000
1-
0,
1%
1#
1$
0&
0!
1R
0Q
1O
1M
1N
0D
0@
0A
0H
#805000
1!
1@
1A
0I
#810000
0!
0@
0A
#815000
1!
1@
1A
#820000
1*
0!
1C
0@
0A
1a
1`
#825000
1!
1@
1A
#830000
0!
0@
0A
#835000
1!
1@
1A
#840000
1"
0%
0*
0!
1B
0O
0C
0@
0A
0a
0`
#845000
1!
1@
1A
#850000
0!
0@
0A
#855000
1!
1@
1A
#860000
1+
0!
1P
0@
0A
1X
1^
1Z
#865000
1!
1@
1A
1_
14
#870000
0!
0@
0A
#875000
1!
1@
1A
#880000
0#
0$
0"
0+
0!
0M
0N
0B
0P
0@
0A
0X
0Z
1W
#885000
1!
1@
1A
#890000
0!
0@
0A
#895000
1!
1@
1A
#900000
1&
0!
1D
0@
0A
1a
1X
1L
1J
1H
18
1g
#905000
1!
1@
1A
1I
1h
0b
0[
1Y
1K
1.
17
06
03
10
1V
0J
1F
1Z
0\
0c
1`
#910000
0!
0@
0A
#915000
1!
1@
1A
1E
0d
1b
0]
1[
0K
1G
1/
0.
16
05
13
02
1J
1\
0^
1c
0e
#920000
0!
0@
0A
#925000
1!
1@
1A
0f
1d
0_
1]
1K
1.
15
04
12
01
0V
0J
0F
1^
0W
1e
0g
0`
#930000
0!
0@
0A
#935000
1!
1@
1A
0E
0h
1f
0b
1_
0Y
0K
0G
0/
0.
07
14
03
11
00
0a
0X
0L
0Z
1W
0c
1g
08
0g
#940000
0!
0@
0A
#945000
1!
1@
1A
#950000
0!
0@
0A
#955000
1!
1@
1A
#960000
0!
0@
0A
#965000
1!
1@
1A
#970000
0!
0@
0A
#975000
1!
1@
1A
#980000
0!
0@
0A
#985000
1!
1@
1A
#990000
0!
0@
0A
#995000
1!
1@
1A
#1000000
1,
1%
1#
1$
0&
0!
1Q
1O
1M
1N
0D
0@
0A
0H
1`
0W
#1005000
1!
1@
1A
0I
#1010000
0!
0@
0A
#1015000
1!
1@
1A
#1020000
1*
0!
1C
0@
0A
1a
1c
#1025000
1!
1@
1A
1b
13
#1030000
0!
0@
0A
#1035000
1!
1@
1A
#1040000
1"
0%
0*
0!
1B
0O
0C
0@
0A
0a
#1045000
1!
1@
1A
#1050000
0!
0@
0A
#1055000
1!
1@
1A
#1060000
1+
0!
1P
0@
0A
1X
1Z
#1065000
1!
1@
1A
#1070000
0!
0@
0A
#1075000
1!
1@
1A
#1080000
0#
0$
0"
0+
0!
0M
0N
0B
0P
0@
0A
0X
0Z
#1085000
1!
1@
1A
#1090000
0!
0@
0A
#1095000
1!
1@
1A
#1100000
1&
0!
1D
0@
0A
1a
1X
1L
1J
1H
18
1g
#1105000
1!
1@
1A
1I
1h
0[
1K
1.
06
10
1V
0J
1F
0\
1W
#1110000
0!
0@
0A
#1115000
1!
1@
1A
1E
0]
1Y
0K
1G
1/
0.
17
05
1J
1Z
0^
#1120000
0!
0@
0A
#1125000
1!
1@
1A
0_
1[
1K
1.
16
04
0V
0J
0F
1\
0`
#1130000
0!
0@
0A
#1135000
1!
1@
1A
0E
0b
1]
0K
0G
0/
0.
15
03
0a
0X
0L
1^
0c
08
0^
#1140000
0!
0@
0A
#1145000
1!
1@
1A
#1150000
0!
0@
0A
#1155000
1!
1@
1A
#1160000
0!
0@
0A
#1165000
1!
1@
1A
#1170000
0!
0@
0A
#1175000
1!
1@
1A
#1180000
0!
0@
0A
#1185000
1!
1@
1A
#1190000
0!
0@
0A
#1195000
1!
1@
1A
#1200000
1'
0,
1%
1#
0&
0!
1T
0Q
1O
1M
0D
0@
0A
1V
0H
0W
1`
#1205000
1!
1@
1A
0I
#1210000
0!
0@
0A
#1215000
1!
1@
1A
#1220000
1*
0!
1C
0@
0A
1a
0g
#1225000
1!
1@
1A
0h
0d
1b
13
02
00
0V
#1230000
0!
0@
0A
#1235000
1!
1@
1A
#1240000
1$
1"
0%
0*
0!
1N
1B
0O
0C
0@
0A
0a
0e
1c
0`
#1245000
1!
1@
1A
#1250000
0!
0@
0A
#1255000
1!
1@
1A
#1260000
1+
0!
1P
0@
0A
1X
1^
#1265000
1!
1@
1A
1_
0Y
07
14
1V
1`
#1270000
0!
0@
0A
#1275000
1!
1@
1A
#1280000
0#
0$
0"
0+
0!
0M
0N
0B
0P
0@
0A
0X
0Z
1W
#1285000
1!
1@
1A
#1290000
0!
0@
0A
#1295000
1!
1@
1A
#1300000
1&
0!
1D
0@
0A
1a
1X
1L
1J
1H
18
1g
#1305000
1!
1@
1A
1I
1h
0f
1d
0[
1Y
1K
1.
17
06
12
01
10
0J
1F
1Z
0\
1e
0g
#1310000
0!
0@
0A
#1315000
1!
1@
1A
1E
0h
1f
0]
1[
0K
1G
1/
0.
16
05
11
00
1J
1\
0^
1g
#1320000
0!
0@
0A
#1325000
1!
1@
1A
1h
0_
1]
1K
1.
15
04
10
0J
0F
1^
0W
#1330000
0!
0@
0A
#1335000
1!
1@
1A
0E
1_
0Y
0K
0G
0/
0.
07
14
0a
0X
0L
0Z
1W
08
#1340000
0!
0@
0A
#1345000
1!
1@
1A
#1350000
0!
0@
0A
#1355000
1!
1@
1A
#1360000
0!
0@
0A
#1365000
1!
1@
1A
#1370000
0!
0@
0A
#1375000
1!
1@
1A
#1380000
0!
0@
0A
#1385000
1!
1@
1A
#1390000
0!
0@
0A
#1395000
1!
1@
1A
#1400000
1(
0'
1%
1#
0&
0!
1S
0T
1O
1M
0D
0@
0A
0V
0H
0`
#1405000
1!
1@
1A
0I
#1410000
0!
0@
0A
#1415000
1!
1@
1A
#1420000
1*
0!
1C
0@
0A
1a
0g
0c
1`
#1425000
1!
1@
1A
0h
0d
02
00
1V
#1430000
0!
0@
0A
#1435000
1!
1@
1A
#1440000
1$
1"
0%
0*
0!
1N
1B
0O
0C
0@
0A
0a
0e
1c
#1445000
1!
1@
1A
#1450000
0!
0@
0A
#1455000
1!
1@
1A
#1460000
1+
0!
1P
0@
0A
1X
1Z
0W
#1465000
1!
1@
1A
#1470000
0!
0@
0A
#1475000
1!
1@
1A
#1480000
0#
0$
0"
0+
0!
0M
0N
0B
0P
0@
0A
0X
0Z
1W
#1485000
1!
1@
1A
#1490000
0!
0@
0A
#1495000
1!
1@
1A
#1500000
1&
0!
1D
0@
0A
1a
1X
1L
1J
1H
18
1g
#1505000
1!
1@
1A
1I
1h
0f
1d
0[
1Y
1K
1.
17
06
12
01
10
0V
0J
1F
1Z
0\
1e
0g
0`
#1510000
0!
0@
0A
#1515000
1!
1@
1A
1E
0h
1f
0b
0]
1[
0K
1G
1/
0.
16
05
03
11
00
1V
1J
1\
0^
0c
1g
1`
#1520000
0!
0@
0A
#1525000
1!
1@
1A
1h
0d
1b
0_
1]
1K
1.
15
04
13
02
10
0J
0F
1^
0W
1c
0e
#1530000
0!
0@
0A
#1535000
1!
1@
1A
0E
0f
1d
1_
0Y
0K
0G
0/
0.
07
14
12
01
0a
0X
0V
0L
0Z
1W
1e
0g
08
0`
1g
#1540000
0!
0@
0A
#1545000
1!
1@
1A
#1550000
0!
0@
0A
#1555000
1!
1@
1A
#1560000
0!
0@
0A
#1565000
1!
1@
1A
#1570000
0!
0@
0A
#1575000
1!
1@
1A
#1580000
0!
0@
0A
#1585000
1!
1@
1A
#1590000
0!
0@
0A
#1595000
1!
1@
1A
#1600000
1'
1%
1#
0&
0!
1T
1O
1M
0D
0@
0A
1V
0H
1`
#1605000
1!
1@
1A
0I
#1610000
0!
0@
0A
#1615000
1!
1@
1A
#1620000
1*
0!
1C
0@
0A
1a
0g
0c
#1625000
1!
1@
1A
0h
1f
0d
02
11
00
#1630000
0!
0@
0A
#1635000
1!
1@
1A
#1640000
1$
1"
0%
0*
0!
1N
1B
0O
0C
0@
0A
0a
0e
1c
#1645000
1!
1@
1A
#1650000
0!
0@
0A
#1655000
1!
1@
1A
#1660000
1+
0!
1P
0@
0A
1X
1Z
0W
#1665000
1!
1@
1A
#1670000
0!
0@
0A
#1675000
1!
1@
1A
#1680000
0#
0$
0"
0+
0!
0M
0N
0B
0P
0@
0A
0X
0Z
1W
#1685000
1!
1@
1A
#1690000
0!
0@
0A
#1695000
1!
1@
1A
#1700000
1&
0!
1D
0@
0A
1a
1X
1L
1J
1H
18
1g
#1705000
1!
1@
1A
1I
1h
0f
1d
0[
1Y
1K
1.
17
06
12
01
10
0J
1F
1Z
0\
1e
0g
#1710000
0!
0@
0A
#1715000
1!
1@
1A
1E
0h
1f
0]
1[
0K
1G
1/
0.
16
05
11
00
1J
1\
0^
1g
#1720000
0!
0@
0A
#1725000
1!
1@
1A
1h
0_
1]
1K
1.
15
04
10
0J
0F
1^
0W
#1730000
0!
0@
0A
#1735000
1!
1@
1A
0E
1_
0Y
0K
0G
0/
0.
07
14
0a
0X
0L
0Z
1W
08
#1740000
0!
0@
0A
#1745000
1!
1@
1A
#1750000
0!
0@
0A
#1755000
1!
1@
1A
#1760000
0!
0@
0A
#1765000
1!
1@
1A
#1770000
0!
0@
0A
#1775000
1!
1@
1A
#1780000
0!
0@
0A
#1785000
1!
1@
1A
#1790000
0!
0@
0A
#1795000
1!
1@
1A
#1800000
1)
0(
0'
1%
1#
0&
0!
1U
0S
0T
1O
1M
0D
0@
0A
0V
0H
0`
#1805000
1!
1@
1A
0I
#1810000
0!
0@
0A
#1815000
1!
1@
1A
#1820000
1*
0!
1C
0@
0A
1a
0g
0c
1`
#1825000
1!
1@
1A
0h
0d
02
00
1V
#1830000
0!
0@
0A
#1835000
1!
1@
1A
#1840000
1$
1"
0%
0*
0!
1N
1B
0O
0C
0@
0A
0a
0e
1c
#1845000
1!
1@
1A
#1850000
0!
0@
0A
#1855000
1!
1@
1A
#1860000
1+
0!
1P
0@
0A
1X
1Z
0W
#1865000
1!
1@
1A
#1870000
0!
0@
0A
#1875000
1!
1@
1A
#1880000
0#
0$
0"
0+
0!
0M
0N
0B
0P
0@
0A
0X
0Z
1W
#1885000
1!
1@
1A
#1890000
0!
0@
0A
#1895000
1!
1@
1A
#1900000
1&
0!
1D
0@
0A
1a
1X
1L
1J
1H
18
1g
#1905000
1!
1@
1A
1I
1h
0f
1d
0[
1Y
1K
1.
17
06
12
01
10
0V
0J
1F
1Z
0\
1e
0g
0`
#1910000
0!
0@
0A
#1915000
1!
1@
1A
1E
0h
1f
0b
0]
1[
0K
1G
1/
0.
16
05
03
11
00
1V
1J
1\
0^
0c
1g
1`
#1920000
0!
0@
0A
#1925000
1!
1@
1A
1h
0d
1b
0_
1]
1K
1.
15
04
13
02
10
0J
0F
1^
0W
1c
0e
#1930000
0!
0@
0A
#1935000
1!
1@
1A
0E
0f
1d
1_
0Y
0K
0G
0/
0.
07
14
12
01
0a
0X
0V
0L
0Z
1W
1e
0g
08
0`
1g
#1940000
0!
0@
0A
#1945000
1!
1@
1A
#1950000
0!
0@
0A
#1955000
1!
1@
1A
#1960000
0!
0@
0A
#1965000
1!
1@
1A
#1970000
0!
0@
0A
#1975000
1!
1@
1A
#1980000
0!
0@
0A
#1985000
1!
1@
1A
#1990000
0!
0@
0A
#1995000
1!
1@
1A
#2000000
1'
1%
1#
0&
0!
1T
1O
1M
0D
0@
0A
0H
#2005000
1!
1@
1A
0I
#2010000
0!
0@
0A
#2015000
1!
1@
1A
#2020000
1*
0!
1C
0@
0A
1a
0g
0c
1`
#2025000
1!
1@
1A
0h
1f
0d
02
11
00
#2030000
0!
0@
0A
#2035000
1!
1@
1A
#2040000
1$
1"
0%
0*
0!
1N
1B
0O
0C
0@
0A
0a
0e
1c
0`
#2045000
1!
1@
1A
#2050000
0!
0@
0A
#2055000
1!
1@
1A
#2060000
1+
0!
1P
0@
0A
1X
1Z
0W
#2065000
1!
1@
1A
#2070000
0!
0@
0A
#2075000
1!
1@
1A
#2080000
0#
0$
0"
0+
0!
0M
0N
0B
0P
0@
0A
0X
0Z
1W
#2085000
1!
1@
1A
#2090000
0!
0@
0A
#2095000
1!
1@
1A
#2100000
0!
0@
0A
#2105000
1!
1@
1A
#2110000
1&
0!
1D
0@
0A
1a
1X
1L
1J
1H
18
1g
#2115000
1!
1@
1A
1I
1h
0f
1d
0b
0[
1Y
1K
1.
17
06
03
12
01
10
0J
1F
1Z
0\
0c
1e
0g
#2120000
0!
0@
0A
#2125000
1!
1@
1A
1E
0h
1f
0d
0]
1[
0K
1G
1/
0.
16
05
02
11
00
1J
1\
0^
0e
1g
#2130000
0!
0@
0A
#2135000
1!
1@
1A
1h
0f
0_
1]
1K
1.
15
04
01
10
0J
0F
1^
0W
0g
#2140000
0!
0@
0A
#2145000
1!
1@
1A
0E
0h
1_
0Y
0K
0G
0/
0.
07
14
00
0a
0X
0L
0Z
1W
08
#2150000
0!
0@
0A
#2155000
1!
1@
1A
#2160000
0!
0@
0A
#2165000
1!
1@
1A
#2170000
0!
0@
0A
#2175000
1!
1@
1A
#2180000
0!
0@
0A
#2185000
1!
1@
1A
#2190000
0!
0@
0A
#2195000
1!
1@
1A
#2200000
1(
0'
1%
1#
0&
0!
1S
0T
1O
1M
0D
0@
0A
0H
#2205000
1!
1@
1A
0I
#2210000
0!
0@
0A
#2215000
1!
1@
1A
#2220000
1*
0!
1C
0@
0A
1a
1e
1`
#2225000
1!
1@
1A
1f
1b
13
11
#2230000
0!
0@
0A
#2235000
1!
1@
1A
#2240000
1$
1"
0%
0*
0!
1N
1B
0O
0C
0@
0A
0a
0e
1c
0`
#2245000
1!
1@
1A
#2250000
0!
0@
0A
#2255000
1!
1@
1A
#2260000
1+
0!
1P
0@
0A
1X
1Z
0W
#2265000
1!
1@
1A
#2270000
0!
0@
0A
#2275000
1!
1@
1A
#2280000
0#
0$
0"
0+
0!
0M
0N
0B
0P
0@
0A
0X
0Z
1W
#2285000
1!
1@
1A
#2290000
0!
0@
0A
#2295000
1!
1@
1A
#2300000
1&
0!
1D
0@
0A
1a
1X
1L
1J
1H
18
1g
#2305000
1!
1@
1A
1I
1h
0f
1d
0b
0[
1Y
1K
1.
17
06
03
12
01
10
1V
0J
1F
1Z
0\
0c
1e
0g
1`
#2310000
0!
0@
0A
#2315000
1!
1@
1A
1E
0h
1f
0d
1b
0]
1[
0K
1G
1/
0.
16
05
13
02
11
00
0V
1J
1\
0^
1c
0e
1g
0`
#2320000
0!
0@
0A
#2325000
1!
1@
1A
1h
0f
1d
0b
0_
1]
1K
1.
15
04
03
12
01
10
0J
0F
1^
0W
0c
1e
0g
#2330000
0!
0@
0A
#2335000
1!
1@
1A
0E
0h
1f
0d
1_
0Y
0K
0G
0/
0.
07
14
02
11
00
0a
0X
0L
0Z
1W
0e
1g
08
0g
#2340000
0!
0@
0A
#2345000
1!
1@
1A
#2350000
0!
0@
0A
#2355000
1!
1@
1A
#2360000
0!
0@
0A
#2365000
1!
1@
1A
#2370000
0!
0@
0A
#2375000
1!
1@
1A
#2380000
0!
0@
0A
#2385000
1!
1@
1A
#2390000
0!
0@
0A
#2395000
1!
1@
1A
#2400000
1'
1%
1#
0&
0!
1T
1O
1M
0D
0@
0A
0H
#2405000
1!
1@
1A
0I
#2410000
0!
0@
0A
#2415000
1!
1@
1A
#2420000
1*
0!
1C
0@
0A
1a
1e
1`
#2425000
1!
1@
1A
1b
13
#2430000
0!
0@
0A
#2435000
1!
1@
1A
#2440000
1$
1"
0%
0*
0!
1N
1B
0O
0C
0@
0A
0a
0e
1c
0`
#2445000
1!
1@
1A
#2450000
0!
0@
0A
#2455000
1!
1@
1A
#2460000
1+
0!
1P
0@
0A
1X
1Z
0W
#2465000
1!
1@
1A
#2470000
0!
0@
0A
#2475000
1!
1@
1A
#2480000
0#
0$
0"
0+
0!
0M
0N
0B
0P
0@
0A
0X
0Z
1W
#2485000
1!
1@
1A
#2490000
0!
0@
0A
#2495000
1!
1@
1A
#2500000
1&
0!
1D
0@
0A
1a
1X
1L
1J
1H
18
1g
#2505000
1!
1@
1A
1I
1h
0f
1d
0b
0[
1Y
1K
1.
17
06
03
12
01
10
0J
1F
1Z
0\
0c
1e
0g
#2510000
0!
0@
0A
#2515000
1!
1@
1A
1E
0h
1f
0d
0]
1[
0K
1G
1/
0.
16
05
02
11
00
1J
1\
0^
0e
1g
#2520000
0!
0@
0A
#2525000
1!
1@
1A
1h
0f
0_
1]
1K
1.
15
04
01
10
0J
0F
1^
0W
0g
#2530000
0!
0@
0A
#2535000
1!
1@
1A
0E
0h
1_
0Y
0K
0G
0/
0.
07
14
00
0a
0X
0L
0Z
1W
08
#2540000
0!
0@
0A
#2545000
1!
1@
1A
#2550000
0!
0@
0A
#2555000
1!
1@
1A
#2560000
0!
0@
0A
#2565000
1!
1@
1A
#2570000
0!
0@
0A
#2575000
1!
1@
1A
#2580000
0!
0@
0A
#2585000
1!
1@
1A
#2590000
0!
0@
0A
#2595000
1!
1@
1A
#2599000
0)
0(
0'
0&
0U
0S
0T
0D
0H
#2600000
1%
1#
0!
1)
1(
1O
1M
0@
1U
1S
0A
#2605000
1!
1@
1A
0I
#2610000
0!
0@
0A
#2615000
1!
1@
1A
#2620000
1*
0!
1C
0@
0A
1a
1e
1`
#2625000
1!
1@
1A
1f
1b
13
11
#2630000
0!
0@
0A
#2635000
1!
1@
1A
#2640000
1$
1"
0%
0*
0!
1N
1B
0O
0C
0@
0A
0a
0e
1c
0`
#2645000
1!
1@
1A
#2650000
0!
0@
0A
#2655000
1!
1@
1A
#2660000
1+
0!
1P
0@
0A
1X
1Z
0W
#2665000
1!
1@
1A
#2670000
0!
0@
0A
#2675000
1!
1@
1A
#2680000
0#
0$
0"
0+
0!
0M
0N
0B
0P
0@
0A
0X
0Z
1W
#2685000
1!
1@
1A
#2690000
0!
0@
0A
#2695000
1!
1@
1A
#2700000
1&
0!
1D
0@
0A
1a
1X
1L
1J
1H
18
1g
#2705000
1!
1@
1A
1I
1h
0f
1d
0b
0[
1Y
1K
1.
17
06
03
12
01
10
1V
0J
1F
1Z
0\
0c
1e
0g
1`
#2710000
0&
0!
0D
0@
0A
#2715000
1!
1@
1A
1E
0h
1f
0d
1b
0]
1[
0K
1G
1/
0.
16
05
13
02
11
00
0V
1J
1\
0^
1c
0e
1g
0`
#2720000
0!
0@
0A
#2725000
1!
1@
1A
1h
0f
1d
0b
0_
1]
1K
1.
15
04
03
12
01
10
0J
0F
1^
0W
0c
1e
0g
#2730000
0!
0@
0A
#2735000
1!
1@
1A
0E
0h
1f
0d
1_
0Y
0K
0G
0/
0.
07
14
02
11
00
0a
0X
0L
0H
0Z
1W
0e
1g
08
0g
#2740000
0!
0@
0A
#2745000
1!
1@
1A
0I
#2750000
0!
0@
0A
#2755000
1!
1@
1A
#2760000
0!
0@
0A
#2765000
1!
1@
1A
#2770000
0!
0@
0A
#2775000
1!
1@
1A
#2780000
0!
0@
0A
#2785000
1!
1@
1A
#2790000
0!
0@
0A
#2795000
1!
1@
1A
#2800000
1'
1%
1#
0!
1T
1O
1M
0@
0A
#2805000
1!
1@
1A
#2810000
0!
0@
0A
#2815000
1!
1@
1A
#2820000
1*
0!
1C
0@
0A
1a
1e
1`
#2825000
1!
1@
1A
1b
13
#2830000
0!
0@
0A
#2835000
1!
1@
1A
#2840000
1$
1"
0%
0*
0!
1N
1B
0O
0C
0@
0A
0a
0e
1c
0`
#2845000
1!
1@
1A
#2850000
0!
0@
0A
#2855000
1!
1@
1A
#2860000
1+
0!
1P
0@
0A
1X
1Z
0W
#2865000
1!
1@
1A
#2870000
0!
0@
0A
#2875000
1!
1@
1A
#2880000
0#
0$
0"
0+
0!
0M
0N
0B
0P
0@
0A
0X
0Z
1W
#2885000
1!
1@
1A
#2890000
0!
0@
0A
#2895000
1!
1@
1A
#2900000
1&
0!
1D
0@
0A
1a
1X
1L
1J
1H
18
1g
#2905000
1!
1@
1A
1I
1h
0f
1d
0b
0[
1Y
1K
1.
17
06
03
12
01
10
0J
1F
1Z
0\
0c
1e
0g
#2910000
0&
0!
0D
0@
0A
#2915000
1!
1@
1A
1E
0h
1f
0d
0]
1[
0K
1G
1/
0.
16
05
02
11
00
1J
1\
0^
0e
1g
#2920000
0!
0@
0A
#2925000
1!
1@
1A
1h
0f
0_
1]
1K
1.
15
04
01
10
0J
0F
1^
0W
0g
#2930000
0!
0@
0A
